<?xml version="1.0" encoding="UTF-8"?>
<svg width="23px" height="36px" viewBox="0 0 23 36" version="1.1" xmlns="http://www.w3.org/2000/svg" xmlns:xlink="http://www.w3.org/1999/xlink">
    <!-- Generator: Sketch 55.2 (78181) - https://sketchapp.com -->
    <title>icon_enterprise_plus-solid</title>
    <desc>Created with Sketch.</desc>
    <g id="ClaroScore/Empresas" stroke="none" stroke-width="1" fill="none" fill-rule="evenodd">
        <g id="Empresas/Empty" transform="translate(-1181.000000, -232.000000)">
            <g id="Empresas">
                <!-- <rect id="Canvas" fill="#FFFFFF" x="0" y="0" width="1440" height="1024"></rect> -->
                <!-- <rect id="Gray_Backward" fill="#EFEFEF" x="320" y="160" width="1120" height="864"></rect> -->
                <g id="Content_Empresas" transform="translate(400.000000, 220.000000)">
                    <g id="BTN_NuevaEmpresa" transform="translate(760.000000, 0.000000)">
                        <!-- <rect id="Rectangle" fill="#EF3829" x="0" y="0" width="221" height="62" rx="8"></rect> -->
                        <g id="icon_enterprise_plus-solid" transform="translate(21.000000, 12.000000)" fill="#FFFFFF" fill-rule="nonzero">
                            <path d="M22.125,3.125 L19.625,3.125 L19.625,0.625 C19.625,0.28125 19.34375,-5.68434189e-14 19,-5.68434189e-14 L17.75,-5.68434189e-14 C17.40625,-5.68434189e-14 17.125,0.28125 17.125,0.625 L17.125,3.125 L14.625,3.125 C14.28125,3.125 14,3.40625 14,3.75 L14,5 C14,5.34375 14.28125,5.625 14.625,5.625 L17.125,5.625 L17.125,8.125 C17.125,8.46875 17.40625,8.75 17.75,8.75 L19,8.75 C19.34375,8.75 19.625,8.46875 19.625,8.125 L19.625,5.625 L22.125,5.625 C22.46875,5.625 22.75,5.34375 22.75,5 L22.75,3.75 C22.75,3.40625 22.46875,3.125 22.125,3.125 Z" id="Shape"></path>
                            <g id="Building" transform="translate(0.000000, 3.000000)">
                                <path d="M12,1.42108547e-14 L12,2.93333333 L2.53333333,2.93333333 L2.53333333,29.44 L6.33333333,29.44 L6.33333333,25.6 C6.33333333,25.3385193 6.52829115,25.1265174 6.76875,25.1265174 L12.23125,25.1265174 C12.4717089,25.1265174 12.6666667,25.3385193 12.6666667,25.6 L12.6666667,29.44 L16.4666667,29.44 L16.4666667,8 L19,8 L19,31.4576271 C19,31.7571525 18.7636875,32 18.4722222,32 L0.527777778,32 C0.2363125,32 0,31.7571525 0,31.4576271 L0,9.22033898 L0,8.13559322 L0,0.542372881 C0,0.242847458 0.2363125,1.42108547e-14 0.527777778,1.42108547e-14 L12,1.42108547e-14 Z" id="Combined-Shape"></path>
                                <path d="M14.375,18 C14.7201563,18 15,18.223875 15,18.5 L15,21.5 C15,21.776125 14.7201563,22 14.375,22 L10.625,22 C10.2798437,22 10,21.776125 10,21.5 L10,18.5 C10,18.223875 10.2798437,18 10.625,18 L14.375,18 Z M8.375,5 C8.72015625,5 9,5.223875 9,5.5 L9,8.5 C9,8.776125 8.72015625,9 8.375,9 L4.625,9 C4.27984375,9 4,8.776125 4,8.5 L4,5.5 C4,5.223875 4.27984375,5 4.625,5 L8.375,5 Z M8.375,11 C8.72015625,11 9,11.223875 9,11.5 L9,14.5 C9,14.776125 8.72015625,15 8.375,15 L4.625,15 C4.27984375,15 4,14.776125 4,14.5 L4,11.5 C4,11.223875 4.27984375,11 4.625,11 L8.375,11 Z M8.375,18 C8.72015625,18 9,18.223875 9,18.5 L9,21.5 C9,21.776125 8.72015625,22 8.375,22 L4.625,22 C4.27984375,22 4,21.776125 4,21.5 L4,18.5 C4,18.223875 4.27984375,18 4.625,18 L8.375,18 Z M14.375,11 C14.7201563,11 15,11.223875 15,11.5 L15,14.5 C15,14.776125 14.7201563,15 14.375,15 L10.625,15 C10.2798437,15 10,14.776125 10,14.5 L10,11.5 C10,11.223875 10.2798437,11 10.625,11 L14.375,11 Z M14.375,5 C14.7201563,5 15,5.223875 15,5.5 L15,8.5 C15,8.776125 14.7201563,9 14.375,9 L10.625,9 C10.2798437,9 10,8.776125 10,8.5 L10,5.5 C10,5.223875 10.2798437,5 10.625,5 L14.375,5 Z" id="Combined-Shape"></path>
                            </g>
                        </g>
                    </g>
                </g>
            </g>
        </g>
    </g>
</svg>
